Booze and the Faith of America
…
### Can alcohol consumption predict U.S. general election results?

Greyfriar's Bobby: Pablo Ortuno, Akshaj Pilla, Ata Tuna,  Lucas Amar

The University of Edinburgh

03/12/2020

---
# Data

### Building a data frame

```
## # A tibble: 1,950 x 6
##    year state   beer_per_capita wine_per_capita spirit_per_capita office    
##   <dbl> <chr>             <dbl>           <dbl>             <dbl> <fct>     
## 1  1977 Alabama            0.97            0.12              0.82 democrat  
## 2  1978 Alabama            0.95            0.12              0.85 democrat  
## 3  1979 Alabama            0.96            0.12              0.82 democrat  
## 4  1980 Alabama            0.95            0.16              0.74 republican
## 5  1981 Alabama            1               0.19              0.73 republican
## 6  1982 Alabama            1               0.18              0.72 republican
## # … with 1,944 more rows
```

---

# Model

```r
model_election <- logistic_reg() %>%
  set_engine("glm") %>%
  fit(office ~ ., data = model_data_train, family = "binomial")
```

```
## # A tibble: 54 x 5
##    term             estimate std.error statistic  p.value
##    <chr>               <dbl>     <dbl>     <dbl>    <dbl>
##  1 (Intercept)       42.2      20.5      2.06    3.95e- 2
##  2 year              -0.0278    0.0101  -2.74    6.12e- 3
##  3 stateAlaska       12.6    1312.       0.00963 9.92e- 1
##  4 stateArizona      -4.36      0.961   -4.54    5.63e- 6
##  5 stateArkansas     -0.576     0.727   -0.792   4.28e- 1
##  6 stateCalifornia   -6.76      1.05    -6.45    1.10e-10
##  7 stateColorado     -6.34      0.848   -7.48    7.22e-14
##  8 stateConnecticut  -3.92      0.862   -4.55    5.46e- 6
##  9 stateDelaware     -9.76      0.936  -10.4     2.00e-25
## 10 stateFlorida      -6.86      0.854   -8.03    9.98e-16
## # … with 44 more rows
```
…
