…
``` r
voter_data %>%
  filter (party %in% c("democrat", "republican")) %>% 
  select(year, state, party, candidatevotes) %>% 
  pivot_wider(names_from = party, values_from = candidatevotes) %>%
  rename(democrat_votes = democrat, republican_votes = republican)
```

    ## Warning: Values are not uniquely identified; output will contain list-cols.
    ## * Use `values_fn = list` to suppress this warning.
    ## * Use `values_fn = length` to identify where the duplicates arise
    ## * Use `values_fn = {summary_fun}` to summarise duplicates

    ## # A tibble: 561 x 4
    ##     year state                democrat_votes republican_votes
    ##    <int> <I<chr>>             <list>         <list>          
    ##  1  1976 Alabama              <int [1]>      <int [1]>       
    ##  2  1976 Alaska               <int [1]>      <int [1]>       
    ##  3  1976 Arizona              <int [1]>      <int [1]>       
    ##  4  1976 Arkansas             <int [1]>      <int [1]>       
    ##  5  1976 California           <int [1]>      <int [1]>       
    ##  6  1976 Colorado             <int [1]>      <int [1]>       
    ##  7  1976 Connecticut          <int [1]>      <int [1]>       
    ##  8  1976 Delaware             <int [1]>      <int [1]>       
    ##  9  1976 District of Columbia <int [1]>      <int [1]>       
    ## 10  1976 Florida              <int [1]>      <int [1]>       
    ## # … with 551 more rows
…
Now we can correctly apply our cleaning and add a “winner” variable

``` r
clean_votes <- voter_data %>%
  filter (party %in% c("democrat", "republican")) %>% 
  select(year, state, party, candidatevotes) %>% 
  pivot_wider(names_from = party, values_from = candidatevotes) %>%
  rename(democrat_votes = democrat, republican_votes = republican) %>%
  mutate(winner = ifelse(democrat_votes > republican_votes, "democrat", "republican")) # Note there are no entries where the number of votes are equal 

clean_votes
```

    ## # A tibble: 561 x 5
    ##     year state                democrat_votes republican_votes winner    
    ##    <int> <I<chr>>                      <dbl>            <dbl> <chr>     
    ##  1  1976 Alabama                      659170           504070 democrat  
    ##  2  1976 Alaska                        44058            71555 republican
    ##  3  1976 Arizona                      295602           418642 republican
    ##  4  1976 Arkansas                     498604           267903 democrat  
    ##  5  1976 California                  3742284          3882244 republican
    ##  6  1976 Colorado                     460801           584278 republican
    ##  7  1976 Connecticut                  647895           719261 republican
    ##  8  1976 Delaware                     122461           109780 democrat  
    ##  9  1976 District of Columbia         137818            27873 democrat  
    ## 10  1976 Florida                     1636000          1469531 democrat  
    ## # … with 551 more rows
…
