…
### Modelling

We will fit a logistic regression model using our training data

``` r
model_election <- logistic_reg() %>%
  set_engine("glm") %>%
  fit(office ~ ., data = model_data_train, family = "binomial")

tidy(model_election)
```

    ## # A tibble: 54 x 5
    ##    term             estimate std.error statistic  p.value
    ##    <chr>               <dbl>     <dbl>     <dbl>    <dbl>
    ##  1 (Intercept)       42.2      20.5      2.06    3.95e- 2
    ##  2 year              -0.0278    0.0101  -2.74    6.12e- 3
    ##  3 stateAlaska       12.6    1312.       0.00963 9.92e- 1
    ##  4 stateArizona      -4.36      0.961   -4.54    5.63e- 6
    ##  5 stateArkansas     -0.576     0.727   -0.792   4.28e- 1
    ##  6 stateCalifornia   -6.76      1.05    -6.45    1.10e-10
    ##  7 stateColorado     -6.34      0.848   -7.48    7.22e-14
    ##  8 stateConnecticut  -3.92      0.862   -4.55    5.46e- 6
    ##  9 stateDelaware     -9.76      0.936  -10.4     2.00e-25
    ## 10 stateFlorida      -6.86      0.854   -8.03    9.98e-16
    ## # … with 44 more rows

We will now predict each states winner in the 2016 election. For this we
will create a data frame where we compare our predictions to the real
values.

``` r
election_pred <- predict(model_election, model_data_test, type = "prob") %>%
  bind_cols(model_data_test %>% select(office, state)) %>%
    mutate(predicted = ifelse(.pred_democrat > .pred_republican, "democrat", "republican")) %>%
  select(.pred_democrat, .pred_republican, state, office, predicted) %>%
  print(n = 10)
```

    ## # A tibble: 50 x 5
    ##    .pred_democrat .pred_republican state       office     predicted 
    ##             <dbl>            <dbl> <I<chr>>    <chr>      <chr>     
    ##  1   0.0888                 0.911  Alabama     republican republican
    ##  2   0.0000000115           1.00   Alaska      republican republican
    ##  3   0.607                  0.393  Arizona     republican democrat  
    ##  4   0.614                  0.386  Arkansas    republican democrat  
    ##  5   0.983                  0.0170 California  democrat   democrat  
    ##  6   0.768                  0.232  Colorado    democrat   democrat  
    ##  7   0.895                  0.105  Connecticut democrat   democrat  
    ##  8   0.825                  0.175  Delaware    democrat   democrat  
    ##  9   0.921                  0.0787 Florida     republican democrat  
    ## 10   0.837                  0.163  Georgia     republican democrat  
    ## # … with 40 more rows
…
